module golang-mongo

go 1.21.4

toolchain go1.23.4

require go.mongodb.org/mongo-driver v1.12.1

require (
	github.com/TwiN/go-color v1.4.0 // indirect
	github.com/caarlos0/env/v9 v9.0.0 // indirect
	github.com/gabriel-vasile/mimetype v1.4.2 // indirect
	github.com/gin-contrib/sse v0.1.0 // indirect
	github.com/gin-gonic/gin v1.9.1 // indirect
	github.com/go-playground/locales v0.14.1 // indirect
	github.com/go-playground/universal-translator v0.18.1 // indirect
	github.com/go-playground/validator/v10 v10.15.3 // indirect
	github.com/goccy/go-json v0.10.2 // indirect
	github.com/golang/snappy v0.0.1 // indirect
	github.com/guregu/null/v5 v5.0.0 // indirect
	github.com/json-iterator/go v1.1.12 // indirect
	github.com/klauspost/compress v1.13.6 // indirect
	github.com/leodido/go-urn v1.2.4 // indirect
	github.com/mattn/go-isatty v0.0.19 // indirect
	github.com/modern-go/concurrent v0.0.0-20180306012644-bacd9c7ef1dd // indirect
	github.com/modern-go/reflect2 v1.0.2 // indirect
	github.com/montanaflynn/stats v0.0.0-20171201202039-1bf9dbcd8cbe // indirect
	github.com/pelletier/go-toml/v2 v2.1.0 // indirect
	github.com/ugorji/go/codec v1.2.11 // indirect
	github.com/xdg-go/pbkdf2 v1.0.0 // indirect
	github.com/xdg-go/scram v1.1.2 // indirect
	github.com/xdg-go/stringprep v1.0.4 // indirect
	github.com/youmark/pkcs8 v0.0.0-20181117223130-1be2e3e5546d // indirect
	gitlab.com/SzymonSkurski/prettyprinter v0.0.0-20230414161937-14aeb5e05df2 // indirect
	golang.org/x/crypto v0.13.0 // indirect
	golang.org/x/net v0.15.0 // indirect
	golang.org/x/sync v0.0.0-20220722155255-886fb9371eb4 // indirect
	golang.org/x/sys v0.12.0 // indirect
	golang.org/x/text v0.13.0 // indirect
	google.golang.org/protobuf v1.31.0 // indirect
	gopkg.in/yaml.v3 v3.0.1 // indirect
)
